Année,Parti politique,Nbr donateurs,Proportion donateurs annuelle (%),Proportion argent annuelle (%),Montant total,Montant moyen,Nbr F,Montant F,Montant moyen F,Proportion donateurs F,Proportion montants F,Nbr H,Montant H,Montant moyen H,Proportion donateurs H,Proportion montants H,Nbr I,Montant I,Montant moyen I,Proportion donateurs I,Proportion montant I
2017,Tous,32092.0,1.0,1.0,2260626.5,70.44,12353.16,817634.97,66.19,0.38,0.36,19733.84,1442651.53,73.11,0.61,0.64,5,340.0,68.0,0.0,0.0
2017,B.P.,43.0,0.0,0.0,2845.0,66.16,11.84,787.55,66.52,0.28,0.28,31.16,2057.45,66.03,0.72,0.72,0,0,n/a,0.0,0.0
2017,C.A.Q.- É.F.L.,3192.0,0.1,0.11,257946.0,80.81,1019.48,78645.91,77.14,0.32,0.3,2172.52,179300.09,82.53,0.68,0.7,0,0,n/a,0.0,0.0
2017,C.P.Q.,56.0,0.0,0.0,2571.0,45.91,14.6,510.3,34.95,0.26,0.2,41.4,2060.7,49.78,0.74,0.8,0,0,n/a,0.0,0.0
2017,N.P.D.Q.,159.0,0.0,0.0,6494.589999999999,40.85,59.16,2041.86,34.51,0.37,0.31,99.84,4452.73,44.6,0.63,0.69,0,0,n/a,0.0,0.0
2017,O.N.,147.0,0.0,0.0,10039.0,68.29,31.73,2092.35,65.94,0.22,0.21,115.27,7946.65,68.94,0.78,0.79,0,0,n/a,0.0,0.0
2017,P.I.,191.99,0.01,0.01,18104.0,94.3,72.8,7063.0,97.02,0.38,0.39,119.19,11041.0,92.63,0.62,0.61,0,0,n/a,0.0,0.0
2017,P.L.,1.0,0.0,0.0,100.0,100.0,0.0,0.0,n/a,0.0,0.0,1.0,100.0,100.0,1.0,1.0,0,0,n/a,0.0,0.0
2017,P.L.Q./Q.L.P.,8821.0,0.27,0.34,769183.13,87.2,3100.09,259638.08,83.75,0.35,0.34,5716.91,509230.05,89.07,0.65,0.66,4,315.0,78.75,0.0,0.0
2017,P.M.L.Q.,75.0,0.0,0.0,6525.0,87.0,26.77,2170.1,81.06,0.36,0.33,48.23,4354.9,90.29,0.64,0.67,0,0,n/a,0.0,0.0
2017,P.N.,1.0,0.0,0.0,30.0,30.0,0.99,29.7,30.0,0.99,0.99,0.01,0.3,30.0,0.01,0.01,0,0,n/a,0.0,0.0
2017,P.Q.,14511.0,0.45,0.37,837706.4,57.73,5639.73,300702.9,53.32,0.39,0.36,8870.27,536978.5,60.54,0.61,0.64,1,25.0,25.0,0.0,0.0
2017,P.T.Q.,6.0,0.0,0.0,600.0,100.0,3.01,301.0,100.0,0.5,0.5,2.99,299.0,100.0,0.5,0.5,0,0,n/a,0.0,0.0
2017,P.U.N.,78.0,0.0,0.0,5147.0,65.99,36.53,2125.8,58.19,0.47,0.41,41.47,3021.2,72.85,0.53,0.59,0,0,n/a,0.0,0.0
2017,P.V.Q./G.P.Q.,40.0,0.0,0.0,2515.0,62.88,12.45,895.9,71.96,0.31,0.36,27.55,1619.1,58.77,0.69,0.64,0,0,n/a,0.0,0.0
2017,P.Éq,1.0,0.0,0.0,100.0,100.0,0.01,1.0,100.0,0.01,0.01,0.99,99.0,100.0,0.99,0.99,0,0,n/a,0.0,0.0
2017,P51,22.0,0.0,0.0,813.51,36.98,4.09,96.71,23.65,0.19,0.12,17.91,716.8,40.02,0.81,0.88,0,0,n/a,0.0,0.0
2017,Q.S.,4636.0,0.14,0.15,330702.87,71.33,2301.19,159094.64,69.14,0.5,0.48,2334.81,171608.23,73.5,0.5,0.52,0,0,n/a,0.0,0.0
2017,É.A.,12.0,0.0,0.0,970.0,80.83,2.5,139.2,55.68,0.21,0.14,9.5,830.8,87.45,0.79,0.86,0,0,n/a,0.0,0.0
2017,É.A.P. - P.C.Q.,99.0,0.0,0.0,8234.0,83.17,16.19,1298.97,80.23,0.16,0.16,82.81,6935.03,83.75,0.84,0.84,0,0,n/a,0.0,0.0
